<?xml version="1.0" encoding="UTF-8" standalone="no"?>
<svg
   xmlns:dc="http://purl.org/dc/elements/1.1/"
   xmlns:cc="http://creativecommons.org/ns#"
   xmlns:rdf="http://www.w3.org/1999/02/22-rdf-syntax-ns#"
   xmlns:svg="http://www.w3.org/2000/svg"
   xmlns="http://www.w3.org/2000/svg"
   xmlns:sodipodi="http://sodipodi.sourceforge.net/DTD/sodipodi-0.dtd"
   xmlns:inkscape="http://www.inkscape.org/namespaces/inkscape"
   id="Capa_1"
   enable-background="new 0 0 512 512"
   height="682.66699"
   viewBox="0 0 682.66699 682.66699"
   width="682.66699"
   version="1.1"
   sodipodi:docname="banner-3.svg"
   inkscape:version="0.92.5 (2060ec1f9f, 2020-04-08)">
  <metadata
     id="metadata917">
    <rdf:RDF>
      <cc:Work
         rdf:about="">
        <dc:format>image/svg+xml</dc:format>
        <dc:type
           rdf:resource="http://purl.org/dc/dcmitype/StillImage" />
        <dc:title></dc:title>
      </cc:Work>
    </rdf:RDF>
  </metadata>
  <defs
     id="defs915" />
  <sodipodi:namedview
     pagecolor="#ffffff"
     bordercolor="#666666"
     borderopacity="1"
     objecttolerance="10"
     gridtolerance="10"
     guidetolerance="10"
     inkscape:pageopacity="0"
     inkscape:pageshadow="2"
     inkscape:window-width="1846"
     inkscape:window-height="1000"
     id="namedview913"
     showgrid="false"
     inkscape:zoom="0.55587984"
     inkscape:cx="305.33612"
     inkscape:cy="396.60805"
     inkscape:window-x="74"
     inkscape:window-y="44"
     inkscape:window-maximized="1"
     inkscape:current-layer="Capa_1"
     fit-margin-top="0"
     fit-margin-left="0"
     fit-margin-right="0"
     fit-margin-bottom="0" />
  <g
     id="g910"
     transform="matrix(1.3333392,0,0,1.3763503,0,-11.010802)"
     style="fill:#2d135e;fill-opacity:1">
    <path
       d="m 269.861,369.062 h -47.699 c -5.523,0 -10,4.478 -10,10 0,5.522 4.477,10 10,10 h 47.699 c 5.523,0 10,-4.478 10,-10 0,-5.522 -4.477,-10 -10,-10 z"
       id="path886"
       inkscape:connector-curvature="0"
       style="fill:#2d135e;fill-opacity:1" />
    <path
       d="m 463.665,369.062 h -133.25 c -5.523,0 -10,4.478 -10,10 0,5.522 4.477,10 10,10 h 133.25 c 5.523,0 10,-4.478 10,-10 0,-5.522 -4.477,-10 -10,-10 z"
       id="path888"
       inkscape:connector-curvature="0"
       style="fill:#2d135e;fill-opacity:1" />
    <path
       d="m 463.665,320.807 h -92.362 c -5.523,0 -10,4.478 -10,10 0,5.522 4.477,10 10,10 h 92.362 c 5.523,0 10,-4.478 10,-10 0,-5.522 -4.477,-10 -10,-10 z"
       id="path890"
       inkscape:connector-curvature="0"
       style="fill:#2d135e;fill-opacity:1" />
    <path
       d="m 461.452,82.492 c 5.523,0 10,-4.478 10,-10 0,-5.522 -4.477,-10 -10,-10 h -34.136 c -5.523,0 -10,4.478 -10,10 0,5.522 4.477,10 10,10 z"
       id="path892"
       inkscape:connector-curvature="0"
       style="fill:#2d135e;fill-opacity:1" />
    <path
       d="M 376.865,62.492 H 219.949 c -5.523,0 -10,4.478 -10,10 0,5.522 4.477,10 10,10 h 156.916 c 5.523,0 10,-4.478 10,-10 0,-5.522 -4.477,-10 -10,-10 z"
       id="path894"
       inkscape:connector-curvature="0"
       style="fill:#2d135e;fill-opacity:1" />
    <path
       d="m 359.09,120.747 c 0,5.522 4.477,10 10,10 h 92.362 c 5.523,0 10,-4.478 10,-10 0,-5.522 -4.477,-10 -10,-10 H 369.09 c -5.523,0 -10,4.478 -10,10 z"
       id="path896"
       inkscape:connector-curvature="0"
       style="fill:#2d135e;fill-opacity:1" />
    <path
       d="M 486.45,266.314 H 342.77 V 185.21 h 28.788 l 60.522,57.685 c 1.88,1.793 4.358,2.762 6.899,2.762 0.747,0 1.5,-0.084 2.244,-0.255 3.275,-0.754 5.953,-3.104 7.126,-6.253 l 20.104,-53.938 h 15.784 c 14.088,0 25.55,-11.455 25.55,-25.536 V 33.565 C 509.787,19.469 498.325,8 484.237,8 H 318.951 c -5.523,0 -10,4.478 -10,10 0,5.522 4.477,10 10,10 h 165.286 c 3.008,0 5.55,2.549 5.55,5.565 v 126.109 c 0,3.001 -2.542,5.536 -5.55,5.536 h -22.729 c -4.176,0 -7.912,2.595 -9.37,6.508 l -17.235,46.239 -52.444,-49.985 c -1.86,-1.772 -4.331,-2.762 -6.899,-2.762 h -32.79 v -2.503 c 0,-14.081 -11.474,-25.537 -25.578,-25.537 H 187.017 V 33.565 c 0,-3.017 2.555,-5.565 5.578,-5.565 h 36.462 c 5.523,0 10,-4.478 10,-10 0,-5.522 -4.477,-10 -10,-10 H 192.595 C 178.491,8 167.017,19.469 167.017,33.565 V 137.17 H 25.578 C 11.474,137.171 0,148.627 0,162.708 v 126.109 c 0,14.097 11.474,25.565 25.578,25.565 h 15.755 l 20.104,53.938 c 1.174,3.149 3.851,5.499 7.126,6.253 0.744,0.171 1.497,0.255 2.244,0.255 2.541,0 5.02,-0.97 6.899,-2.762 l 60.522,-57.685 h 31.001 v 103.605 c 0,14.097 11.474,25.565 25.578,25.565 h 178.962 l 60.521,57.685 c 1.88,1.792 4.359,2.762 6.899,2.762 0.747,0 1.5,-0.084 2.244,-0.255 3.275,-0.754 5.953,-3.104 7.126,-6.253 l 20.105,-53.938 h 15.784 c 14.088,0 25.55,-11.469 25.55,-25.565 V 291.879 C 512,277.782 500.539,266.314 486.45,266.314 Z m -352.223,28.069 c -2.569,0 -5.04,0.989 -6.899,2.762 L 74.883,347.13 57.648,300.891 c -1.458,-3.913 -5.194,-6.508 -9.37,-6.508 h -22.7 c -3.023,0 -5.578,-2.549 -5.578,-5.565 v -126.11 c 0,-3.001 2.555,-5.537 5.578,-5.537 h 291.613 c 3.023,0 5.578,2.536 5.578,5.537 v 126.109 c 0,3.017 -2.555,5.565 -5.578,5.565 H 134.227 Z M 492,417.988 c 0,3.017 -2.542,5.565 -5.55,5.565 h -22.729 c -4.176,0 -7.912,2.595 -9.37,6.508 L 437.116,476.3 384.672,426.315 c -1.86,-1.772 -4.33,-2.762 -6.899,-2.762 H 194.809 c -3.023,0 -5.578,-2.549 -5.578,-5.565 V 314.383 h 127.961 c 14.104,0 25.578,-11.469 25.578,-25.565 v -2.503 h 143.68 c 3.008,0 5.55,2.548 5.55,5.564 z"
       id="path898"
       inkscape:connector-curvature="0"
       style="fill:#2d135e;fill-opacity:1" />
    <path
       d="m 206.681,201.636 c 0,-5.522 -4.477,-10 -10,-10 H 48.363 c -5.523,0 -10,4.478 -10,10 0,5.522 4.477,10 10,10 h 148.318 c 5.523,0 10,-4.478 10,-10 z"
       id="path900"
       inkscape:connector-curvature="0"
       style="fill:#2d135e;fill-opacity:1" />
    <path
       d="m 257.263,211.636 h 32.575 c 5.523,0 10,-4.478 10,-10 0,-5.522 -4.477,-10 -10,-10 h -32.575 c -5.523,0 -10,4.478 -10,10 0,5.522 4.477,10 10,10 z"
       id="path902"
       inkscape:connector-curvature="0"
       style="fill:#2d135e;fill-opacity:1" />
    <path
       d="m 299.837,249.891 c 0,-5.522 -4.477,-10 -10,-10 H 141.491 c -5.523,0 -10,4.478 -10,10 0,5.522 4.477,10 10,10 h 148.346 c 5.523,0 10,-4.478 10,-10 z"
       id="path904"
       inkscape:connector-curvature="0"
       style="fill:#2d135e;fill-opacity:1" />
    <path
       d="M 80.938,239.891 H 48.363 c -5.523,0 -10,4.478 -10,10 0,5.522 4.477,10 10,10 h 32.575 c 5.523,0 10,-4.478 10,-10 0,-5.522 -4.477,-10 -10,-10 z"
       id="path906"
       inkscape:connector-curvature="0"
       style="fill:#2d135e;fill-opacity:1" />
    <path
       d="m 274.004,28 h 0.028 c 5.523,0 9.986,-4.478 9.986,-10 0,-5.522 -4.491,-10 -10.014,-10 -5.523,0 -10,4.478 -10,10 0,5.522 4.477,10 10,10 z"
       id="path908"
       inkscape:connector-curvature="0"
       style="fill:#2d135e;fill-opacity:1" />
  </g>
</svg>
